0.999999,1.244545415148156e-07
0.991189,0.0010965689652555094
0.973009,0.0033591525299297917
0.960402,0.004928150934761959
0.945505,0.006782150239654846
0.928386,0.008912687535785708
0.909105,0.011312295550663865
0.887774,0.01396703537564007
0.864469,0.016867448465559435
0.839327,0.01999648454823495
0.812464,0.023339706896851314
0.784032,0.0268781984210988
0.754179,0.030593539848833742
0.723085,0.03446332936258415
0.690895,0.038469521053830856
0.657818,0.04258610392339804
0.624014,0.0467931652446439
0.589703,0.05106332501843594
0.555064,0.05537430588184367
0.520305,0.05970022129023275
0.485627,0.06401605588075943
0.451242,0.06829542529062331
0.417351,0.07251331415698063
0.384161,0.07664396038973859
0.351885,0.08066085517155526
0.320743,0.0845366185032982
0.29093,0.0882469817493727
0.262692,0.09176132909256701
0.236269,0.0950497914429184
0.211962,0.0978337454783841
0.190065,0.09924898569440828
0.169782,0.09991492200677549
0.15022,0.09935973517484638
0.131515,0.09767415416911181
0.113747,0.0947008550227943
0.097028,0.09016014858835616
0.081427,0.08440999818443161
0.067001,0.07737529767344051
0.053853,0.06908666922896768
0.042013,0.0602712192126744
0.031535,0.05070388849591316
0.022485,0.0409837710869808
0.014903,0.030798679585025697
0.008823,0.02092448728066849
0.004278,0.01193252095961261
0.001315,0.005279631263470419
0.0,0.0
0.000641,-0.0036593248753878536
0.003744,-0.008201507399059494
0.009317,-0.01070855928964572
0.016852,-0.01084087885411446
0.026156,-0.010738286429719883
0.037148,-0.010617080934347439
0.050349,-0.010471517456871856
0.066134,-0.01029746098448703
0.084314,-0.010096995563647237
0.104783,-0.009871290024639
0.127428,-0.009621590384654561
0.152142,-0.009349076500681258
0.178825,-0.00905485104280072
0.207351,-0.008740303375315794
0.237571,-0.008407076476648108
0.269333,-0.008056846405321732
0.30251,-0.007691013552340334
0.336888,-0.007311937631678596
0.372308,-0.0069213718887663036
0.408554,-0.006521698090979773
0.445456,-0.006114790777457768
0.482784,-0.0057031860893880315
0.520319,-0.005289298874249329
0.557841,-0.0048755550062212355
0.595155,-0.004464104691962928
0.632003,-0.004057792820285002
0.668183,-0.003658846784752345
0.703456,-0.0032699019668600447
0.737634,-0.00289303138636156
0.770477,-0.0025308814514527957
0.801785,-0.0021856575022970066
0.831385,-0.001859267158135407
0.859062,-0.001554081159643497
0.884651,-0.0012719189124559566
0.908004,-0.001014412368293598
0.928974,-0.0007831824521764112
0.947394,-0.0005800706231407129
0.963198,-0.0004058046434403783
0.986498,-0.0001488825144212811
0.999232,-8.468506226894795e-06
